%YAML 1.1
%TAG !u! tag:unity3d.com,2011:
--- !u!114 &11400000
MonoBehaviour:
  m_ObjectHideFlags: 0
  m_CorrespondingSourceObject: {fileID: 0}
  m_PrefabInternal: {fileID: 0}
  m_GameObject: {fileID: 0}
  m_Enabled: 1
  m_EditorHideFlags: 0
  m_Script: {fileID: 11500000, guid: fe17608210d969a44b502678049ffed4, type: 3}
  m_Name: Slug
  m_EditorClassIdentifier: 
  sprite: {fileID: 21300000, guid: 132f3047e7446419d96cca56122068b2, type: 3}
